{
"aula1": [{ "tema": "  ", "slide": "  " , "video": "  " , "exerc": "  " }],
"aula2": [{ "tema": "  ", "slide": "  " , "video": "  " , "exerc": "  " }],
"aula3": [{ "tema": "  ", "slide": "  " , "video": "  " , "exerc": "  " }],
"aula4": [{ "tema": "  ", "slide": "  " , "video": "  " , "exerc": "  " }],
"aula5": [{ "tema": "  ", "slide": "  " , "video": "  " , "exerc": "  " }],
"aula6": [{ "tema": "  ", "slide": "  " , "video": "  " , "exerc": "  " }],
"aula7": [{ "tema": "  ", "slide": "  " , "video": "  " , "exerc": "  " }],
"aula8": [{ "tema": "  ", "slide": "  " , "video": "  " , "exerc": "  " }],
"aula9": [{ "tema": "  ", "slide": "  " , "video": "  " , "exerc": "  " }],
"aula10": [{ "tema": "  ", "slide": "  " , "video": "  " , "exerc": "  " }],
"aula11": [{ "tema": "  ", "slide": "  " , "video": "  " , "exerc": "  " }],
"aula12": [{ "tema": "  ", "slide": "  " , "video": "  " , "exerc": "  " }],
"aula13": [{ "tema": "  ", "slide": "  " , "video": "  " , "exerc": "  " }],
"aula14": [{ "tema": "  ", "slide": "  " , "video": "  " , "exerc": "  " }],
"aula15": [{ "tema": "  ", "slide": "  " , "video": "  " , "exerc": "  " }],
"aula16": [{ "tema": "  ", "slide": "  " , "video": "  " , "exerc": "  " }],
"aula17": [{ "tema": "  ", "slide": "  " , "video": "  " , "exerc": "  " }],
"aula18": [{ "tema": "  ", "slide": "  " , "video": "  " , "exerc": "  " }],
"aula19": [{ "tema": "  ", "slide": "  " , "video": "  " , "exerc": "  " }],
"aula20": [{ "tema": "  ", "slide": "  " , "video": "  " , "exerc": "  " }],
"aula21": [{ "tema": "  ", "slide": "  " , "video": "  " , "exerc": "  " }],
"aula22": [{ "tema": "  ", "slide": "  " , "video": "  " , "exerc": "  " }],
"aula23": [{ "tema": "  ", "slide": "  " , "video": "  " , "exerc": "  " }],
"aula24": [{ "tema": "  ", "slide": "  " , "video": "  " , "exerc": "  " }],
"aula25": [{ "tema": "  ", "slide": "  " , "video": "  " , "exerc": "  " }],
"aula26": [{ "tema": "  ", "slide": "  " , "video": "  " , "exerc": "  " }],
"aula27": [{ "tema": "  ", "slide": "  " , "video": "  " , "exerc": "  " }],
"aula28": [{ "tema": "  ", "slide": "  " , "video": "  " , "exerc": "  " }],
"aula29": [{ "tema": "  ", "slide": "  " , "video": "  " , "exerc": "  " }],
"aula30": [{ "tema": "  ", "slide": "  " , "video": "  " , "exerc": "  " }],
"aula31": [{ "tema": "  ", "slide": "  " , "video": "  " , "exerc": "  " }],
"aula32": [{ "tema": "  ", "slide": "  " , "video": "  " , "exerc": "  " }],
"aula33": [{ "tema": "  ", "slide": "  " , "video": "  " , "exerc": "  " }],
"aula34": [{ "tema": "  ", "slide": "  " , "video": "  " , "exerc": "  " }],
"aula35": [{ "tema": "  ", "slide": "  " , "video": "  " , "exerc": "  " }],
"aula36": [{ "tema": "  ", "slide": "  " , "video": "  " , "exerc": "  " }],
"aula37": [{ "tema": "  ", "slide": "  " , "video": "  " , "exerc": "  " }],
"aula38": [{ "tema": "  ", "slide": "  " , "video": "  " , "exerc": "  " }],
"aula39": [{ "tema": "  ", "slide": "  " , "video": "  " , "exerc": "  " }],
"aula40": [{ "tema": "  ", "slide": "  " , "video": "  " , "exerc": "  " }],
"aula41": [{ "tema": "  ", "slide": "  " , "video": "  " , "exerc": "  " }],
"aula42": [{ "tema": "  ", "slide": "  " , "video": "  " , "exerc": "  " }],
"aula43": [{ "tema": "  ", "slide": "  " , "video": "  " , "exerc": "  " }],
"aula44": [{ "tema": "  ", "slide": "  " , "video": "  " , "exerc": "  " }],
"aula45": [{ "tema": "  ", "slide": "  " , "video": "  " , "exerc": "  " }],
"aula46": [{ "tema": "  ", "slide": "  " , "video": "  " , "exerc": "  " }],
"aula47": [{ "tema": "  ", "slide": "  " , "video": "  " , "exerc": "  " }],
"aula48": [{ "tema": "  ", "slide": "  " , "video": "  " , "exerc": "  " }],
"aula49": [{ "tema": "  ", "slide": "  " , "video": "  " , "exerc": "  " }],
"aula50": [{ "tema": "  ", "slide": "  " , "video": "  " , "exerc": "  " }],
"aula51": [{ "tema": "  ", "slide": "  " , "video": "  " , "exerc": "  " }],
"aula52": [{ "tema": "  ", "slide": "  " , "video": "  " , "exerc": "  " }],
"aula53": [{ "tema": "  ", "slide": "  " , "video": "  " , "exerc": "  " }],
"aula54": [{ "tema": "  ", "slide": "  " , "video": "  " , "exerc": "  " }],
"aula55": [{ "tema": "  ", "slide": "  " , "video": "  " , "exerc": "  " }],
"aula56": [{ "tema": "  ", "slide": "  " , "video": "  " , "exerc": "  " }],
"aula57": [{ "tema": "  ", "slide": "  " , "video": "  " , "exerc": "  " }],
"aula58": [{ "tema": "  ", "slide": "  " , "video": "  " , "exerc": "  " }],
"aula59": [{ "tema": "  ", "slide": "  " , "video": "  " , "exerc": "  " }],
"aula60": [{ "tema": "  ", "slide": "  " , "video": "  " , "exerc": "  " }],
"aula61": [{ "tema": "  ", "slide": "  " , "video": "  " , "exerc": "  " }],
"aula62": [{ "tema": "  ", "slide": "  " , "video": "  " , "exerc": "  " }],
"aula63": [{ "tema": "  ", "slide": "  " , "video": "  " , "exerc": "  " }],
"aula64": [{ "tema": "  ", "slide": "  " , "video": "  " , "exerc": "  " }],
"aula65": [{ "tema": "  ", "slide": "  " , "video": "  " , "exerc": "  " }],
"aula66": [{ "tema": "  ", "slide": "  " , "video": "  " , "exerc": "  " }],
"aula67": [{ "tema": "  ", "slide": "  " , "video": "  " , "exerc": "  " }],
"aula68": [{ "tema": "  ", "slide": "  " , "video": "  " , "exerc": "  " }],
"aula69": [{ "tema": "  ", "slide": "  " , "video": "  " , "exerc": "  " }],
"aula70": [{ "tema": "  ", "slide": "  " , "video": "  " , "exerc": "  " }],
"aula71": [{ "tema": "  ", "slide": "  " , "video": "  " , "exerc": "  " }],
"aula72": [{ "tema": "  ", "slide": "  " , "video": "  " , "exerc": "  " }],
"aula73": [{ "tema": "  ", "slide": "  " , "video": "  " , "exerc": "  " }],
"aula74": [{ "tema": "  ", "slide": "  " , "video": "  " , "exerc": "  " }],
"aula75": [{ "tema": "  ", "slide": "  " , "video": "  " , "exerc": "  " }],
"aula76": [{ "tema": "  ", "slide": "  " , "video": "  " , "exerc": "  " }],
"aula77": [{ "tema": "  ", "slide": "  " , "video": "  " , "exerc": "  " }],
"aula78": [{ "tema": "  ", "slide": "  " , "video": "  " , "exerc": "  " }],
"aula79": [{ "tema": "  ", "slide": "  " , "video": "  " , "exerc": "  " }],
"aula80": [{ "tema": "  ", "slide": "  " , "video": "  " , "exerc": "  " }],
"aula81": [{ "tema": "  ", "slide": "  " , "video": "  " , "exerc": "  " }],
"aula82": [{ "tema": "  ", "slide": "  " , "video": "  " , "exerc": "  " }],
"aula83": [{ "tema": "  ", "slide": "  " , "video": "  " , "exerc": "  " }],
"aula84": [{ "tema": "  ", "slide": "  " , "video": "  " , "exerc": "  " }],
"aula85": [{ "tema": "  ", "slide": "  " , "video": "  " , "exerc": "  " }],
"aula86": [{ "tema": "  ", "slide": "  " , "video": "  " , "exerc": "  " }],
"aula87": [{ "tema": "  ", "slide": "  " , "video": "  " , "exerc": "  " }],
"aula88": [{ "tema": "  ", "slide": "  " , "video": "  " , "exerc": "  " }],
"aula89": [{ "tema": "  ", "slide": "  " , "video": "  " , "exerc": "  " }],
"aula90": [{ "tema": "  ", "slide": "  " , "video": "  " , "exerc": "  " }],
"aula91": [{ "tema": "  ", "slide": "  " , "video": "  " , "exerc": "  " }],
"aula92": [{ "tema": "  ", "slide": "  " , "video": "  " , "exerc": "  " }],
"aula93": [{ "tema": "  ", "slide": "  " , "video": "  " , "exerc": "  " }],
"aula94": [{ "tema": "  ", "slide": "  " , "video": "  " , "exerc": "  " }],
"aula95": [{ "tema": "  ", "slide": "  " , "video": "  " , "exerc": "  " }],
"aula96": [{ "tema": "  ", "slide": "  " , "video": "  " , "exerc": "  " }],
"aula97": [{ "tema": "  ", "slide": "  " , "video": "  " , "exerc": "  " }],
"aula98": [{ "tema": "  ", "slide": "  " , "video": "  " , "exerc": "  " }],
"aula99": [{ "tema": "  ", "slide": "  " , "video": "  " , "exerc": "  " }],
"aula100": [{ "tema": "  ", "slide": "  " , "video": "  " , "exerc": "  " }]
}